Introduction to R and biodiversity science
…
alpha_rarefaction

## # A tibble: 179 x 4
##    spatial_pattern site      N   S_n
##    <chr>           <chr> <int> <dbl>
##  1 random          site1     1  1.00
##  2 random          site1     2  1.95
##  3 random          site1     3  2.86
##  4 random          site1     4  3.73
##  5 random          site1     5  4.56
##  6 random          site1     6  5.35
##  7 random          site1     7  6.11
##  8 random          site1     8  6.83
##  9 random          site1     9  7.53
## 10 random          site1    10  8.20
## #  with 169 more rows
…
